-- Merging decision tree log ---
manifest
ADDED from /home/nikhillohar/AndroidStudioProjects/Contactlist-master/app/src/main/AndroidManifest.xml:2:1-23:12
INJECTED from /home/nikhillohar/AndroidStudioProjects/Contactlist-master/app/src/main/AndroidManifest.xml:2:1-23:12
INJECTED from /home/nikhillohar/AndroidStudioProjects/Contactlist-master/app/src/main/AndroidManifest.xml:2:1-23:12
INJECTED from /home/nikhillohar/AndroidStudioProjects/Contactlist-master/app/src/main/AndroidManifest.xml:2:1-23:12
MERGED from [com.android.support:design:28.0.0] /home/nikhillohar/.gradle/caches/transforms-1/files-1.1/design-28.0.0.aar/249658473ca5780ffdffa8138b8fca0c/AndroidManifest.xml:17:1-24:12
MERGED from [com.android.support:appcompat-v7:28.0.0] /home/nikhillohar/.gradle/caches/transforms-1/files-1.1/appcompat-v7-28.0.0.aar/fa11e864f433937a8a598a32abbb7652/AndroidManifest.xml:17:1-22:12
MERGED from [com.android.support.constraint:constraint-layout:1.1.3] /home/nikhillohar/.gradle/caches/transforms-1/files-1.1/constraint-layout-1.1.3.aar/f7b4ecbff21ce1d0c238576a1c5fca8c/AndroidManifest.xml:2:1-11:12
MERGED from [com.android.support:support-v4:28.0.0] /home/nikhillohar/.gradle/caches/transforms-1/files-1.1/support-v4-28.0.0.aar/18024d037536b791069ac48d2bdcd249/AndroidManifest.xml:17:1-22:12
MERGED from [android.arch.lifecycle:extensions:1.1.1] /home/nikhillohar/.gradle/caches/transforms-1/files-1.1/extensions-1.1.1.aar/aa639febc0ae0a86e424ff71501a767b/AndroidManifest.xml:17:1-30:12
MERGED from [com.android.support:recyclerview-v7:28.0.0] /home/nikhillohar/.gradle/caches/transforms-1/files-1.1/recyclerview-v7-28.0.0.aar/4e32d8b9e1982605d25726ba987d9a9c/AndroidManifest.xml:17:1-22:12
MERGED from [com.android.support:animated-vector-drawable:28.0.0] /home/nikhillohar/.gradle/caches/transforms-1/files-1.1/animated-vector-drawable-28.0.0.aar/c7277ebced802d14948c3c2036259645/AndroidManifest.xml:17:1-22:12
MERGED from [com.android.support:support-fragment:28.0.0] /home/nikhillohar/.gradle/caches/transforms-1/files-1.1/support-fragment-28.0.0.aar/6d9b0e8bbbce3706dbd2bfd323da2eb4/AndroidManifest.xml:17:1-22:12
MERGED from [com.android.support:support-core-ui:28.0.0] /home/nikhillohar/.gradle/caches/transforms-1/files-1.1/support-core-ui-28.0.0.aar/543ba0118556848e846f263fb9d15688/AndroidManifest.xml:17:1-22:12
MERGED from [com.android.support:support-core-utils:28.0.0] /home/nikhillohar/.gradle/caches/transforms-1/files-1.1/support-core-utils-28.0.0.aar/78fd40a804b471ed04dc1a0f191e0247/AndroidManifest.xml:17:1-22:12
MERGED from [com.android.support:support-vector-drawable:28.0.0] /home/nikhillohar/.gradle/caches/transforms-1/files-1.1/support-vector-drawable-28.0.0.aar/8ada2477c7d6c2d21198c8d01dad0124/AndroidManifest.xml:17:1-22:12
MERGED from [com.android.support:support-media-compat:28.0.0] /home/nikhillohar/.gradle/caches/transforms-1/files-1.1/support-media-compat-28.0.0.aar/3f1a1f543a40aea26b0d0eacef8016a8/AndroidManifest.xml:17:1-22:12
MERGED from [com.android.support:transition:28.0.0] /home/nikhillohar/.gradle/caches/transforms-1/files-1.1/transition-28.0.0.aar/067620fdc189a30db59a23f71f8bf761/AndroidManifest.xml:17:1-22:12
MERGED from [com.android.support:loader:28.0.0] /home/nikhillohar/.gradle/caches/transforms-1/files-1.1/loader-28.0.0.aar/50835793f95f9c9c584fc6878dba8c88/AndroidManifest.xml:17:1-22:12
MERGED from [com.android.support:viewpager:28.0.0] /home/nikhillohar/.gradle/caches/transforms-1/files-1.1/viewpager-28.0.0.aar/1536f09c95656b3694033dc4240c19f3/AndroidManifest.xml:17:1-22:12
MERGED from [com.android.support:coordinatorlayout:28.0.0] /home/nikhillohar/.gradle/caches/transforms-1/files-1.1/coordinatorlayout-28.0.0.aar/f38cbafce51ce526a0e7e48b42771ed4/AndroidManifest.xml:17:1-22:12
MERGED from [com.android.support:drawerlayout:28.0.0] /home/nikhillohar/.gradle/caches/transforms-1/files-1.1/drawerlayout-28.0.0.aar/74d613422c3aa8f084bb0ed2aa461497/AndroidManifest.xml:17:1-22:12
MERGED from [com.android.support:slidingpanelayout:28.0.0] /home/nikhillohar/.gradle/caches/transforms-1/files-1.1/slidingpanelayout-28.0.0.aar/842940baafd49d6de77174b8c501d625/AndroidManifest.xml:17:1-22:12
MERGED from [com.android.support:customview:28.0.0] /home/nikhillohar/.gradle/caches/transforms-1/files-1.1/customview-28.0.0.aar/1f9f13963b212443a7cb70592e34eb50/AndroidManifest.xml:17:1-22:12
MERGED from [com.android.support:swiperefreshlayout:28.0.0] /home/nikhillohar/.gradle/caches/transforms-1/files-1.1/swiperefreshlayout-28.0.0.aar/b876e8b197abaecf06be5f79f7ee2668/AndroidManifest.xml:17:1-22:12
MERGED from [com.android.support:asynclayoutinflater:28.0.0] /home/nikhillohar/.gradle/caches/transforms-1/files-1.1/asynclayoutinflater-28.0.0.aar/67f7653757eb2fbec8d192f51665d3d3/AndroidManifest.xml:17:1-22:12
MERGED from [com.android.support:support-compat:28.0.0] /home/nikhillohar/.gradle/caches/transforms-1/files-1.1/support-compat-28.0.0.aar/59d47c273f316651a05a0c001e489f45/AndroidManifest.xml:17:1-24:12
MERGED from [com.android.support:versionedparcelable:28.0.0] /home/nikhillohar/.gradle/caches/transforms-1/files-1.1/versionedparcelable-28.0.0.aar/3d077c4f01523f08a8eb9b155ee9004b/AndroidManifest.xml:17:1-25:12
MERGED from [com.android.support:cursoradapter:28.0.0] /home/nikhillohar/.gradle/caches/transforms-1/files-1.1/cursoradapter-28.0.0.aar/b3e6920bad73372f3e07b0b064b53203/AndroidManifest.xml:17:1-22:12
MERGED from [android.arch.lifecycle:runtime:1.1.1] /home/nikhillohar/.gradle/caches/transforms-1/files-1.1/runtime-1.1.1.aar/936a6adbc157e8620f6b0587a483f9c0/AndroidManifest.xml:17:1-22:12
MERGED from [android.arch.lifecycle:livedata:1.1.1] /home/nikhillohar/.gradle/caches/transforms-1/files-1.1/livedata-1.1.1.aar/5a1f1a5ed710dee931d4a1888e294f09/AndroidManifest.xml:17:1-22:12
MERGED from [android.arch.lifecycle:livedata-core:1.1.1] /home/nikhillohar/.gradle/caches/transforms-1/files-1.1/livedata-core-1.1.1.aar/46051d5aad019701e93aaab05f458906/AndroidManifest.xml:17:1-22:12
MERGED from [android.arch.core:runtime:1.1.1] /home/nikhillohar/.gradle/caches/transforms-1/files-1.1/runtime-1.1.1.aar/978ddf19c20c7409f1cc01702fda7d46/AndroidManifest.xml:17:1-22:12
MERGED from [android.arch.lifecycle:viewmodel:1.1.1] /home/nikhillohar/.gradle/caches/transforms-1/files-1.1/viewmodel-1.1.1.aar/004f9d0b6882703c7f45768849f7351d/AndroidManifest.xml:17:1-22:12
MERGED from [com.android.support:cardview-v7:28.0.0] /home/nikhillohar/.gradle/caches/transforms-1/files-1.1/cardview-v7-28.0.0.aar/2cbdd44cfb7623be5f9d9e33fb46a63f/AndroidManifest.xml:17:1-22:12
MERGED from [com.android.support:documentfile:28.0.0] /home/nikhillohar/.gradle/caches/transforms-1/files-1.1/documentfile-28.0.0.aar/d92b77392ccdd66d8ef2d8c5515480e1/AndroidManifest.xml:17:1-22:12
MERGED from [com.android.support:localbroadcastmanager:28.0.0] /home/nikhillohar/.gradle/caches/transforms-1/files-1.1/localbroadcastmanager-28.0.0.aar/93d51602e84135186b2c369c3b29ffa9/AndroidManifest.xml:17:1-22:12
MERGED from [com.android.support:print:28.0.0] /home/nikhillohar/.gradle/caches/transforms-1/files-1.1/print-28.0.0.aar/02411579f0903e5b9adfc8e93a653d8f/AndroidManifest.xml:17:1-22:12
MERGED from [com.android.support:interpolator:28.0.0] /home/nikhillohar/.gradle/caches/transforms-1/files-1.1/interpolator-28.0.0.aar/3b80863b3f9cb3baae1b0e51ec62f6ca/AndroidManifest.xml:17:1-22:12
INJECTED from /home/nikhillohar/AndroidStudioProjects/Contactlist-master/app/src/main/AndroidManifest.xml:2:1-23:12
INJECTED from /home/nikhillohar/AndroidStudioProjects/Contactlist-master/app/src/main/AndroidManifest.xml:2:1-23:12
INJECTED from /home/nikhillohar/AndroidStudioProjects/Contactlist-master/app/src/main/AndroidManifest.xml:2:1-23:12
	package
		ADDED from /home/nikhillohar/AndroidStudioProjects/Contactlist-master/app/src/main/AndroidManifest.xml:3:5-39
		INJECTED from /home/nikhillohar/AndroidStudioProjects/Contactlist-master/app/src/main/AndroidManifest.xml
		INJECTED from /home/nikhillohar/AndroidStudioProjects/Contactlist-master/app/src/main/AndroidManifest.xml
	android:versionName
		INJECTED from /home/nikhillohar/AndroidStudioProjects/Contactlist-master/app/src/main/AndroidManifest.xml
		ADDED from /home/nikhillohar/AndroidStudioProjects/Contactlist-master/app/src/main/AndroidManifest.xml:2:1-23:12
		INJECTED from /home/nikhillohar/AndroidStudioProjects/Contactlist-master/app/src/main/AndroidManifest.xml
	android:versionCode
		INJECTED from /home/nikhillohar/AndroidStudioProjects/Contactlist-master/app/src/main/AndroidManifest.xml
		ADDED from /home/nikhillohar/AndroidStudioProjects/Contactlist-master/app/src/main/AndroidManifest.xml:2:1-23:12
		INJECTED from /home/nikhillohar/AndroidStudioProjects/Contactlist-master/app/src/main/AndroidManifest.xml
	xmlns:android
		ADDED from /home/nikhillohar/AndroidStudioProjects/Contactlist-master/app/src/main/AndroidManifest.xml:2:11-69
uses-permission#android.permission.READ_CONTACTS
ADDED from /home/nikhillohar/AndroidStudioProjects/Contactlist-master/app/src/main/AndroidManifest.xml:4:5-72
	android:name
		ADDED from /home/nikhillohar/AndroidStudioProjects/Contactlist-master/app/src/main/AndroidManifest.xml:4:22-69
uses-permission#android.permission.WRITE_CONTACTS
ADDED from /home/nikhillohar/AndroidStudioProjects/Contactlist-master/app/src/main/AndroidManifest.xml:5:5-73
	android:name
		ADDED from /home/nikhillohar/AndroidStudioProjects/Contactlist-master/app/src/main/AndroidManifest.xml:5:22-70
application
ADDED from /home/nikhillohar/AndroidStudioProjects/Contactlist-master/app/src/main/AndroidManifest.xml:7:5-21:19
MERGED from [com.android.support:design:28.0.0] /home/nikhillohar/.gradle/caches/transforms-1/files-1.1/design-28.0.0.aar/249658473ca5780ffdffa8138b8fca0c/AndroidManifest.xml:22:5-20
MERGED from [com.android.support:design:28.0.0] /home/nikhillohar/.gradle/caches/transforms-1/files-1.1/design-28.0.0.aar/249658473ca5780ffdffa8138b8fca0c/AndroidManifest.xml:22:5-20
MERGED from [com.android.support.constraint:constraint-layout:1.1.3] /home/nikhillohar/.gradle/caches/transforms-1/files-1.1/constraint-layout-1.1.3.aar/f7b4ecbff21ce1d0c238576a1c5fca8c/AndroidManifest.xml:9:5-20
MERGED from [com.android.support.constraint:constraint-layout:1.1.3] /home/nikhillohar/.gradle/caches/transforms-1/files-1.1/constraint-layout-1.1.3.aar/f7b4ecbff21ce1d0c238576a1c5fca8c/AndroidManifest.xml:9:5-20
MERGED from [android.arch.lifecycle:extensions:1.1.1] /home/nikhillohar/.gradle/caches/transforms-1/files-1.1/extensions-1.1.1.aar/aa639febc0ae0a86e424ff71501a767b/AndroidManifest.xml:22:5-28:19
MERGED from [android.arch.lifecycle:extensions:1.1.1] /home/nikhillohar/.gradle/caches/transforms-1/files-1.1/extensions-1.1.1.aar/aa639febc0ae0a86e424ff71501a767b/AndroidManifest.xml:22:5-28:19
MERGED from [com.android.support:support-compat:28.0.0] /home/nikhillohar/.gradle/caches/transforms-1/files-1.1/support-compat-28.0.0.aar/59d47c273f316651a05a0c001e489f45/AndroidManifest.xml:22:5-94
MERGED from [com.android.support:support-compat:28.0.0] /home/nikhillohar/.gradle/caches/transforms-1/files-1.1/support-compat-28.0.0.aar/59d47c273f316651a05a0c001e489f45/AndroidManifest.xml:22:5-94
MERGED from [com.android.support:versionedparcelable:28.0.0] /home/nikhillohar/.gradle/caches/transforms-1/files-1.1/versionedparcelable-28.0.0.aar/3d077c4f01523f08a8eb9b155ee9004b/AndroidManifest.xml:22:5-23:19
MERGED from [com.android.support:versionedparcelable:28.0.0] /home/nikhillohar/.gradle/caches/transforms-1/files-1.1/versionedparcelable-28.0.0.aar/3d077c4f01523f08a8eb9b155ee9004b/AndroidManifest.xml:22:5-23:19
	android:appComponentFactory
		ADDED from [com.android.support:support-compat:28.0.0] /home/nikhillohar/.gradle/caches/transforms-1/files-1.1/support-compat-28.0.0.aar/59d47c273f316651a05a0c001e489f45/AndroidManifest.xml:22:18-91
	android:supportsRtl
		ADDED from /home/nikhillohar/AndroidStudioProjects/Contactlist-master/app/src/main/AndroidManifest.xml:12:9-35
	android:label
		ADDED from /home/nikhillohar/AndroidStudioProjects/Contactlist-master/app/src/main/AndroidManifest.xml:10:9-41
	android:roundIcon
		ADDED from /home/nikhillohar/AndroidStudioProjects/Contactlist-master/app/src/main/AndroidManifest.xml:11:9-54
	android:icon
		ADDED from /home/nikhillohar/AndroidStudioProjects/Contactlist-master/app/src/main/AndroidManifest.xml:9:9-43
	android:allowBackup
		ADDED from /home/nikhillohar/AndroidStudioProjects/Contactlist-master/app/src/main/AndroidManifest.xml:8:9-35
	android:theme
		ADDED from /home/nikhillohar/AndroidStudioProjects/Contactlist-master/app/src/main/AndroidManifest.xml:13:9-40
activity#com.learn.nikhil.contact.MainActivity
ADDED from /home/nikhillohar/AndroidStudioProjects/Contactlist-master/app/src/main/AndroidManifest.xml:14:9-20:20
	android:name
		ADDED from /home/nikhillohar/AndroidStudioProjects/Contactlist-master/app/src/main/AndroidManifest.xml:14:19-47
intent-filter#action:name:android.intent.action.MAIN+category:name:android.intent.category.LAUNCHER
ADDED from /home/nikhillohar/AndroidStudioProjects/Contactlist-master/app/src/main/AndroidManifest.xml:15:13-19:29
action#android.intent.action.MAIN
ADDED from /home/nikhillohar/AndroidStudioProjects/Contactlist-master/app/src/main/AndroidManifest.xml:16:17-69
	android:name
		ADDED from /home/nikhillohar/AndroidStudioProjects/Contactlist-master/app/src/main/AndroidManifest.xml:16:25-66
category#android.intent.category.LAUNCHER
ADDED from /home/nikhillohar/AndroidStudioProjects/Contactlist-master/app/src/main/AndroidManifest.xml:18:17-77
	android:name
		ADDED from /home/nikhillohar/AndroidStudioProjects/Contactlist-master/app/src/main/AndroidManifest.xml:18:27-74
uses-sdk
INJECTED from /home/nikhillohar/AndroidStudioProjects/Contactlist-master/app/src/main/AndroidManifest.xml reason: use-sdk injection requested
INJECTED from /home/nikhillohar/AndroidStudioProjects/Contactlist-master/app/src/main/AndroidManifest.xml
INJECTED from /home/nikhillohar/AndroidStudioProjects/Contactlist-master/app/src/main/AndroidManifest.xml
MERGED from [com.android.support:design:28.0.0] /home/nikhillohar/.gradle/caches/transforms-1/files-1.1/design-28.0.0.aar/249658473ca5780ffdffa8138b8fca0c/AndroidManifest.xml:20:5-44
MERGED from [com.android.support:design:28.0.0] /home/nikhillohar/.gradle/caches/transforms-1/files-1.1/design-28.0.0.aar/249658473ca5780ffdffa8138b8fca0c/AndroidManifest.xml:20:5-44
MERGED from [com.android.support:appcompat-v7:28.0.0] /home/nikhillohar/.gradle/caches/transforms-1/files-1.1/appcompat-v7-28.0.0.aar/fa11e864f433937a8a598a32abbb7652/AndroidManifest.xml:20:5-44
MERGED from [com.android.support:appcompat-v7:28.0.0] /home/nikhillohar/.gradle/caches/transforms-1/files-1.1/appcompat-v7-28.0.0.aar/fa11e864f433937a8a598a32abbb7652/AndroidManifest.xml:20:5-44
MERGED from [com.android.support.constraint:constraint-layout:1.1.3] /home/nikhillohar/.gradle/caches/transforms-1/files-1.1/constraint-layout-1.1.3.aar/f7b4ecbff21ce1d0c238576a1c5fca8c/AndroidManifest.xml:5:5-7:41
MERGED from [com.android.support.constraint:constraint-layout:1.1.3] /home/nikhillohar/.gradle/caches/transforms-1/files-1.1/constraint-layout-1.1.3.aar/f7b4ecbff21ce1d0c238576a1c5fca8c/AndroidManifest.xml:5:5-7:41
MERGED from [com.android.support:support-v4:28.0.0] /home/nikhillohar/.gradle/caches/transforms-1/files-1.1/support-v4-28.0.0.aar/18024d037536b791069ac48d2bdcd249/AndroidManifest.xml:20:5-44
MERGED from [com.android.support:support-v4:28.0.0] /home/nikhillohar/.gradle/caches/transforms-1/files-1.1/support-v4-28.0.0.aar/18024d037536b791069ac48d2bdcd249/AndroidManifest.xml:20:5-44
MERGED from [android.arch.lifecycle:extensions:1.1.1] /home/nikhillohar/.gradle/caches/transforms-1/files-1.1/extensions-1.1.1.aar/aa639febc0ae0a86e424ff71501a767b/AndroidManifest.xml:20:5-44
MERGED from [android.arch.lifecycle:extensions:1.1.1] /home/nikhillohar/.gradle/caches/transforms-1/files-1.1/extensions-1.1.1.aar/aa639febc0ae0a86e424ff71501a767b/AndroidManifest.xml:20:5-44
MERGED from [com.android.support:recyclerview-v7:28.0.0] /home/nikhillohar/.gradle/caches/transforms-1/files-1.1/recyclerview-v7-28.0.0.aar/4e32d8b9e1982605d25726ba987d9a9c/AndroidManifest.xml:20:5-44
MERGED from [com.android.support:recyclerview-v7:28.0.0] /home/nikhillohar/.gradle/caches/transforms-1/files-1.1/recyclerview-v7-28.0.0.aar/4e32d8b9e1982605d25726ba987d9a9c/AndroidManifest.xml:20:5-44
MERGED from [com.android.support:animated-vector-drawable:28.0.0] /home/nikhillohar/.gradle/caches/transforms-1/files-1.1/animated-vector-drawable-28.0.0.aar/c7277ebced802d14948c3c2036259645/AndroidManifest.xml:20:5-44
MERGED from [com.android.support:animated-vector-drawable:28.0.0] /home/nikhillohar/.gradle/caches/transforms-1/files-1.1/animated-vector-drawable-28.0.0.aar/c7277ebced802d14948c3c2036259645/AndroidManifest.xml:20:5-44
MERGED from [com.android.support:support-fragment:28.0.0] /home/nikhillohar/.gradle/caches/transforms-1/files-1.1/support-fragment-28.0.0.aar/6d9b0e8bbbce3706dbd2bfd323da2eb4/AndroidManifest.xml:20:5-44
MERGED from [com.android.support:support-fragment:28.0.0] /home/nikhillohar/.gradle/caches/transforms-1/files-1.1/support-fragment-28.0.0.aar/6d9b0e8bbbce3706dbd2bfd323da2eb4/AndroidManifest.xml:20:5-44
MERGED from [com.android.support:support-core-ui:28.0.0] /home/nikhillohar/.gradle/caches/transforms-1/files-1.1/support-core-ui-28.0.0.aar/543ba0118556848e846f263fb9d15688/AndroidManifest.xml:20:5-44
MERGED from [com.android.support:support-core-ui:28.0.0] /home/nikhillohar/.gradle/caches/transforms-1/files-1.1/support-core-ui-28.0.0.aar/543ba0118556848e846f263fb9d15688/AndroidManifest.xml:20:5-44
MERGED from [com.android.support:support-core-utils:28.0.0] /home/nikhillohar/.gradle/caches/transforms-1/files-1.1/support-core-utils-28.0.0.aar/78fd40a804b471ed04dc1a0f191e0247/AndroidManifest.xml:20:5-44
MERGED from [com.android.support:support-core-utils:28.0.0] /home/nikhillohar/.gradle/caches/transforms-1/files-1.1/support-core-utils-28.0.0.aar/78fd40a804b471ed04dc1a0f191e0247/AndroidManifest.xml:20:5-44
MERGED from [com.android.support:support-vector-drawable:28.0.0] /home/nikhillohar/.gradle/caches/transforms-1/files-1.1/support-vector-drawable-28.0.0.aar/8ada2477c7d6c2d21198c8d01dad0124/AndroidManifest.xml:20:5-44
MERGED from [com.android.support:support-vector-drawable:28.0.0] /home/nikhillohar/.gradle/caches/transforms-1/files-1.1/support-vector-drawable-28.0.0.aar/8ada2477c7d6c2d21198c8d01dad0124/AndroidManifest.xml:20:5-44
MERGED from [com.android.support:support-media-compat:28.0.0] /home/nikhillohar/.gradle/caches/transforms-1/files-1.1/support-media-compat-28.0.0.aar/3f1a1f543a40aea26b0d0eacef8016a8/AndroidManifest.xml:20:5-44
MERGED from [com.android.support:support-media-compat:28.0.0] /home/nikhillohar/.gradle/caches/transforms-1/files-1.1/support-media-compat-28.0.0.aar/3f1a1f543a40aea26b0d0eacef8016a8/AndroidManifest.xml:20:5-44
MERGED from [com.android.support:transition:28.0.0] /home/nikhillohar/.gradle/caches/transforms-1/files-1.1/transition-28.0.0.aar/067620fdc189a30db59a23f71f8bf761/AndroidManifest.xml:20:5-44
MERGED from [com.android.support:transition:28.0.0] /home/nikhillohar/.gradle/caches/transforms-1/files-1.1/transition-28.0.0.aar/067620fdc189a30db59a23f71f8bf761/AndroidManifest.xml:20:5-44
MERGED from [com.android.support:loader:28.0.0] /home/nikhillohar/.gradle/caches/transforms-1/files-1.1/loader-28.0.0.aar/50835793f95f9c9c584fc6878dba8c88/AndroidManifest.xml:20:5-44
MERGED from [com.android.support:loader:28.0.0] /home/nikhillohar/.gradle/caches/transforms-1/files-1.1/loader-28.0.0.aar/50835793f95f9c9c584fc6878dba8c88/AndroidManifest.xml:20:5-44
MERGED from [com.android.support:viewpager:28.0.0] /home/nikhillohar/.gradle/caches/transforms-1/files-1.1/viewpager-28.0.0.aar/1536f09c95656b3694033dc4240c19f3/AndroidManifest.xml:20:5-44
MERGED from [com.android.support:viewpager:28.0.0] /home/nikhillohar/.gradle/caches/transforms-1/files-1.1/viewpager-28.0.0.aar/1536f09c95656b3694033dc4240c19f3/AndroidManifest.xml:20:5-44
MERGED from [com.android.support:coordinatorlayout:28.0.0] /home/nikhillohar/.gradle/caches/transforms-1/files-1.1/coordinatorlayout-28.0.0.aar/f38cbafce51ce526a0e7e48b42771ed4/AndroidManifest.xml:20:5-44
MERGED from [com.android.support:coordinatorlayout:28.0.0] /home/nikhillohar/.gradle/caches/transforms-1/files-1.1/coordinatorlayout-28.0.0.aar/f38cbafce51ce526a0e7e48b42771ed4/AndroidManifest.xml:20:5-44
MERGED from [com.android.support:drawerlayout:28.0.0] /home/nikhillohar/.gradle/caches/transforms-1/files-1.1/drawerlayout-28.0.0.aar/74d613422c3aa8f084bb0ed2aa461497/AndroidManifest.xml:20:5-44
MERGED from [com.android.support:drawerlayout:28.0.0] /home/nikhillohar/.gradle/caches/transforms-1/files-1.1/drawerlayout-28.0.0.aar/74d613422c3aa8f084bb0ed2aa461497/AndroidManifest.xml:20:5-44
MERGED from [com.android.support:slidingpanelayout:28.0.0] /home/nikhillohar/.gradle/caches/transforms-1/files-1.1/slidingpanelayout-28.0.0.aar/842940baafd49d6de77174b8c501d625/AndroidManifest.xml:20:5-44
MERGED from [com.android.support:slidingpanelayout:28.0.0] /home/nikhillohar/.gradle/caches/transforms-1/files-1.1/slidingpanelayout-28.0.0.aar/842940baafd49d6de77174b8c501d625/AndroidManifest.xml:20:5-44
MERGED from [com.android.support:customview:28.0.0] /home/nikhillohar/.gradle/caches/transforms-1/files-1.1/customview-28.0.0.aar/1f9f13963b212443a7cb70592e34eb50/AndroidManifest.xml:20:5-44
MERGED from [com.android.support:customview:28.0.0] /home/nikhillohar/.gradle/caches/transforms-1/files-1.1/customview-28.0.0.aar/1f9f13963b212443a7cb70592e34eb50/AndroidManifest.xml:20:5-44
MERGED from [com.android.support:swiperefreshlayout:28.0.0] /home/nikhillohar/.gradle/caches/transforms-1/files-1.1/swiperefreshlayout-28.0.0.aar/b876e8b197abaecf06be5f79f7ee2668/AndroidManifest.xml:20:5-44
MERGED from [com.android.support:swiperefreshlayout:28.0.0] /home/nikhillohar/.gradle/caches/transforms-1/files-1.1/swiperefreshlayout-28.0.0.aar/b876e8b197abaecf06be5f79f7ee2668/AndroidManifest.xml:20:5-44
MERGED from [com.android.support:asynclayoutinflater:28.0.0] /home/nikhillohar/.gradle/caches/transforms-1/files-1.1/asynclayoutinflater-28.0.0.aar/67f7653757eb2fbec8d192f51665d3d3/AndroidManifest.xml:20:5-44
MERGED from [com.android.support:asynclayoutinflater:28.0.0] /home/nikhillohar/.gradle/caches/transforms-1/files-1.1/asynclayoutinflater-28.0.0.aar/67f7653757eb2fbec8d192f51665d3d3/AndroidManifest.xml:20:5-44
MERGED from [com.android.support:support-compat:28.0.0] /home/nikhillohar/.gradle/caches/transforms-1/files-1.1/support-compat-28.0.0.aar/59d47c273f316651a05a0c001e489f45/AndroidManifest.xml:20:5-44
MERGED from [com.android.support:support-compat:28.0.0] /home/nikhillohar/.gradle/caches/transforms-1/files-1.1/support-compat-28.0.0.aar/59d47c273f316651a05a0c001e489f45/AndroidManifest.xml:20:5-44
MERGED from [com.android.support:versionedparcelable:28.0.0] /home/nikhillohar/.gradle/caches/transforms-1/files-1.1/versionedparcelable-28.0.0.aar/3d077c4f01523f08a8eb9b155ee9004b/AndroidManifest.xml:20:5-44
MERGED from [com.android.support:versionedparcelable:28.0.0] /home/nikhillohar/.gradle/caches/transforms-1/files-1.1/versionedparcelable-28.0.0.aar/3d077c4f01523f08a8eb9b155ee9004b/AndroidManifest.xml:20:5-44
MERGED from [com.android.support:cursoradapter:28.0.0] /home/nikhillohar/.gradle/caches/transforms-1/files-1.1/cursoradapter-28.0.0.aar/b3e6920bad73372f3e07b0b064b53203/AndroidManifest.xml:20:5-44
MERGED from [com.android.support:cursoradapter:28.0.0] /home/nikhillohar/.gradle/caches/transforms-1/files-1.1/cursoradapter-28.0.0.aar/b3e6920bad73372f3e07b0b064b53203/AndroidManifest.xml:20:5-44
MERGED from [android.arch.lifecycle:runtime:1.1.1] /home/nikhillohar/.gradle/caches/transforms-1/files-1.1/runtime-1.1.1.aar/936a6adbc157e8620f6b0587a483f9c0/AndroidManifest.xml:20:5-44
MERGED from [android.arch.lifecycle:runtime:1.1.1] /home/nikhillohar/.gradle/caches/transforms-1/files-1.1/runtime-1.1.1.aar/936a6adbc157e8620f6b0587a483f9c0/AndroidManifest.xml:20:5-44
MERGED from [android.arch.lifecycle:livedata:1.1.1] /home/nikhillohar/.gradle/caches/transforms-1/files-1.1/livedata-1.1.1.aar/5a1f1a5ed710dee931d4a1888e294f09/AndroidManifest.xml:20:5-44
MERGED from [android.arch.lifecycle:livedata:1.1.1] /home/nikhillohar/.gradle/caches/transforms-1/files-1.1/livedata-1.1.1.aar/5a1f1a5ed710dee931d4a1888e294f09/AndroidManifest.xml:20:5-44
MERGED from [android.arch.lifecycle:livedata-core:1.1.1] /home/nikhillohar/.gradle/caches/transforms-1/files-1.1/livedata-core-1.1.1.aar/46051d5aad019701e93aaab05f458906/AndroidManifest.xml:20:5-44
MERGED from [android.arch.lifecycle:livedata-core:1.1.1] /home/nikhillohar/.gradle/caches/transforms-1/files-1.1/livedata-core-1.1.1.aar/46051d5aad019701e93aaab05f458906/AndroidManifest.xml:20:5-44
MERGED from [android.arch.core:runtime:1.1.1] /home/nikhillohar/.gradle/caches/transforms-1/files-1.1/runtime-1.1.1.aar/978ddf19c20c7409f1cc01702fda7d46/AndroidManifest.xml:20:5-44
MERGED from [android.arch.core:runtime:1.1.1] /home/nikhillohar/.gradle/caches/transforms-1/files-1.1/runtime-1.1.1.aar/978ddf19c20c7409f1cc01702fda7d46/AndroidManifest.xml:20:5-44
MERGED from [android.arch.lifecycle:viewmodel:1.1.1] /home/nikhillohar/.gradle/caches/transforms-1/files-1.1/viewmodel-1.1.1.aar/004f9d0b6882703c7f45768849f7351d/AndroidManifest.xml:20:5-44
MERGED from [android.arch.lifecycle:viewmodel:1.1.1] /home/nikhillohar/.gradle/caches/transforms-1/files-1.1/viewmodel-1.1.1.aar/004f9d0b6882703c7f45768849f7351d/AndroidManifest.xml:20:5-44
MERGED from [com.android.support:cardview-v7:28.0.0] /home/nikhillohar/.gradle/caches/transforms-1/files-1.1/cardview-v7-28.0.0.aar/2cbdd44cfb7623be5f9d9e33fb46a63f/AndroidManifest.xml:20:5-44
MERGED from [com.android.support:cardview-v7:28.0.0] /home/nikhillohar/.gradle/caches/transforms-1/files-1.1/cardview-v7-28.0.0.aar/2cbdd44cfb7623be5f9d9e33fb46a63f/AndroidManifest.xml:20:5-44
MERGED from [com.android.support:documentfile:28.0.0] /home/nikhillohar/.gradle/caches/transforms-1/files-1.1/documentfile-28.0.0.aar/d92b77392ccdd66d8ef2d8c5515480e1/AndroidManifest.xml:20:5-44
MERGED from [com.android.support:documentfile:28.0.0] /home/nikhillohar/.gradle/caches/transforms-1/files-1.1/documentfile-28.0.0.aar/d92b77392ccdd66d8ef2d8c5515480e1/AndroidManifest.xml:20:5-44
MERGED from [com.android.support:localbroadcastmanager:28.0.0] /home/nikhillohar/.gradle/caches/transforms-1/files-1.1/localbroadcastmanager-28.0.0.aar/93d51602e84135186b2c369c3b29ffa9/AndroidManifest.xml:20:5-44
MERGED from [com.android.support:localbroadcastmanager:28.0.0] /home/nikhillohar/.gradle/caches/transforms-1/files-1.1/localbroadcastmanager-28.0.0.aar/93d51602e84135186b2c369c3b29ffa9/AndroidManifest.xml:20:5-44
MERGED from [com.android.support:print:28.0.0] /home/nikhillohar/.gradle/caches/transforms-1/files-1.1/print-28.0.0.aar/02411579f0903e5b9adfc8e93a653d8f/AndroidManifest.xml:20:5-44
MERGED from [com.android.support:print:28.0.0] /home/nikhillohar/.gradle/caches/transforms-1/files-1.1/print-28.0.0.aar/02411579f0903e5b9adfc8e93a653d8f/AndroidManifest.xml:20:5-44
MERGED from [com.android.support:interpolator:28.0.0] /home/nikhillohar/.gradle/caches/transforms-1/files-1.1/interpolator-28.0.0.aar/3b80863b3f9cb3baae1b0e51ec62f6ca/AndroidManifest.xml:20:5-44
MERGED from [com.android.support:interpolator:28.0.0] /home/nikhillohar/.gradle/caches/transforms-1/files-1.1/interpolator-28.0.0.aar/3b80863b3f9cb3baae1b0e51ec62f6ca/AndroidManifest.xml:20:5-44
INJECTED from /home/nikhillohar/AndroidStudioProjects/Contactlist-master/app/src/main/AndroidManifest.xml
INJECTED from /home/nikhillohar/AndroidStudioProjects/Contactlist-master/app/src/main/AndroidManifest.xml
	android:targetSdkVersion
		INJECTED from /home/nikhillohar/AndroidStudioProjects/Contactlist-master/app/src/main/AndroidManifest.xml
		ADDED from /home/nikhillohar/AndroidStudioProjects/Contactlist-master/app/src/main/AndroidManifest.xml
		INJECTED from /home/nikhillohar/AndroidStudioProjects/Contactlist-master/app/src/main/AndroidManifest.xml
	android:minSdkVersion
		INJECTED from /home/nikhillohar/AndroidStudioProjects/Contactlist-master/app/src/main/AndroidManifest.xml
		ADDED from /home/nikhillohar/AndroidStudioProjects/Contactlist-master/app/src/main/AndroidManifest.xml
		INJECTED from /home/nikhillohar/AndroidStudioProjects/Contactlist-master/app/src/main/AndroidManifest.xml
provider#android.arch.lifecycle.ProcessLifecycleOwnerInitializer
ADDED from [android.arch.lifecycle:extensions:1.1.1] /home/nikhillohar/.gradle/caches/transforms-1/files-1.1/extensions-1.1.1.aar/aa639febc0ae0a86e424ff71501a767b/AndroidManifest.xml:23:9-27:43
	android:authorities
		ADDED from [android.arch.lifecycle:extensions:1.1.1] /home/nikhillohar/.gradle/caches/transforms-1/files-1.1/extensions-1.1.1.aar/aa639febc0ae0a86e424ff71501a767b/AndroidManifest.xml:25:13-68
	android:multiprocess
		ADDED from [android.arch.lifecycle:extensions:1.1.1] /home/nikhillohar/.gradle/caches/transforms-1/files-1.1/extensions-1.1.1.aar/aa639febc0ae0a86e424ff71501a767b/AndroidManifest.xml:27:13-40
	android:exported
		ADDED from [android.arch.lifecycle:extensions:1.1.1] /home/nikhillohar/.gradle/caches/transforms-1/files-1.1/extensions-1.1.1.aar/aa639febc0ae0a86e424ff71501a767b/AndroidManifest.xml:26:13-37
	android:name
		ADDED from [android.arch.lifecycle:extensions:1.1.1] /home/nikhillohar/.gradle/caches/transforms-1/files-1.1/extensions-1.1.1.aar/aa639febc0ae0a86e424ff71501a767b/AndroidManifest.xml:24:13-83
